39 0.7625 0.4 0.025 0.0555555555556
39 0.6171875 0.438888888889 0.015625 0.0259259259259
39 0.593229166667 0.446296296296 0.0135416666667 0.0222222222222
39 0.566145833333 0.443518518519 0.0114583333333 0.0203703703704
