39 0.722916666667 0.414814814815 0.025 0.0518518518519
39 0.611458333333 0.439814814815 0.0145833333333 0.0277777777778
39 0.590104166667 0.447222222222 0.0114583333333 0.0203703703704
39 0.5640625 0.446296296296 0.0135416666667 0.0222222222222
