39 0.905729166667 0.356481481481 0.0364583333333 0.0907407407407
39 0.636979166667 0.432407407407 0.0135416666667 0.0351851851852
39 0.60625 0.439814814815 0.0125 0.0240740740741
39 0.572395833333 0.437962962963 0.0135416666667 0.0240740740741
