39 0.779166666667 0.399074074074 0.0270833333333 0.0685185185185
39 0.619791666667 0.438888888889 0.0125 0.0296296296296
39 0.596354166667 0.446296296296 0.0135416666667 0.0259259259259
39 0.567708333333 0.44537037037 0.0125 0.0203703703704
